ej4-ParteD/simulation/qsim/Parte_D.msim.vcd
$comment
	File created using the following command:
		vcd file Parte_D.msim.vcd -direction
$end
$date
	Sun Nov 27 20:35:08 2022
$end
$version
	ModelSim Version 10.1d
$end
$timescale
	1ps
$end
$scope module Template_vlg_vec_tst $end
$var reg 1 ! clk $end
$var reg 1 " entrada $end
$var reg 1 # reset $end
$var wire 1 $ salida [3] $end
$var wire 1 % salida [2] $end
$var wire 1 & salida [1] $end
$var wire 1 ' salida [0] $end
$var wire 1 ( sampler $end
$scope module i1 $end
$var wire 1 ) gnd $end
$var wire 1 * vcc $end
$var wire 1 + unknown $end
$var tri1 1 , devclrn $end
$var tri1 1 - devpor $end
$var tri1 1 . devoe $end
$var wire 1 / clk~input_o $end
$var wire 1 0 clk~inputclkctrl_outclk $end
$var wire 1 1 salida[0]~output_o $end
$var wire 1 2 salida[1]~output_o $end
$var wire 1 3 salida[2]~output_o $end
$var wire 1 4 salida[3]~output_o $end
$var wire 1 5 entrada~input_o $end
$var wire 1 6 state~18_combout $end
$var wire 1 7 reset~input_o $end
$var wire 1 8 reset~inputclkctrl_outclk $end
$var wire 1 9 state.s4~q $end
$var wire 1 : state~20_combout $end
$var wire 1 ; state.s5~q $end
$var wire 1 < state~22_combout $end
$var wire 1 = state.s1~q $end
$var wire 1 > state~21_combout $end
$var wire 1 ? state.s7~q $end
$var wire 1 @ state.s6~feeder_combout $end
$var wire 1 A state.s6~q $end
$var wire 1 B state~19_combout $end
$var wire 1 C state.s2~q $end
$var wire 1 D state~17_combout $end
$var wire 1 E state.s3~q $end
$var wire 1 F salida~0_combout $end
$var wire 1 G WideOr1~0_combout $end
$var wire 1 H WideOr0~0_combout $end
$var wire 1 I salida~1_combout $end
$upscope $end
$upscope $end
$enddefinitions $end
#0
$dumpvars
0!
0"
0#
0'
0&
0%
0$
x(
0)
1*
x+
1,
1-
1.
0/
00
01
02
03
04
05
06
07
08
09
0:
0;
1<
0=
0>
0?
0@
0A
1B
0C
0D
0E
0F
0G
1H
1I
$end
#10000
1"
15
0(
0B
1>
#15000
0"
05
1(
1B
0>
#20000
1"
15
0(
0B
1>
#25000
0"
05
1(
1B
0>
#35000
1"
15
0(
0B
1>
#40000
0"
05
1(
1B
0>
#45000
1"
15
0(
0B
1>
#50000
1!
0"
1/
05
10
1(
1B
0>
1?
1=
1@
0I
0B
14
1$
#55000
1"
15
0(
#60000
0"
05
1(
#70000
1"
15
0(
#90000
0"
05
1(
#100000
0!
0/
00
0(
#105000
1"
15
1(
#110000
0"
05
0(
#115000
1"
15
1(
#120000
0"
05
0(
#145000
1"
15
1(
#150000
1!
1/
10
0(
1A
0?
1D
0H
0@
13
1%
#155000
0"
05
1(
#165000
1"
15
0(
#175000
0"
05
1(
#180000
1"
15
0(
#200000
0!
0"
0/
05
00
1(
#210000
1"
15
0(
#215000
0"
05
1(
#225000
1"
15
0(
#230000
0"
05
1(
#235000
1"
15
0(
#240000
0"
05
1(
#250000
1!
1"
1/
15
10
0(
1E
0A
1:
0D
1G
1F
12
11
1&
1'
#255000
0"
05
1(
0:
16
#260000
1"
15
0(
1:
06
#285000
0"
05
1(
0:
16
#290000
1"
15
0(
1:
06
#300000
0!
0/
00
1(
#305000
0"
05
0(
0:
16
#310000
1"
15
1(
1:
06
#315000
0"
05
0(
0:
16
#330000
1"
15
1(
1:
06
#335000
0"
05
0(
0:
16
#350000
1!
1/
10
1(
0E
19
06
1H
0<
0G
03
02
0%
0&
#365000
1"
15
0(
#380000
0"
05
1(
#395000
1"
15
0(
#400000
0!
0"
0/
05
00
1(
#415000
1"
15
0(
#420000
0"
05
1(
#430000
1"
15
0(
#440000
0"
05
1(
#445000
1"
15
0(
#450000
1!
1/
10
1(
0=
09
1I
1>
1<
0F
04
01
0$
0'
#470000
0"
05
0(
1B
0>
#480000
1"
15
1(
0B
1>
#485000
0"
05
0(
1B
0>
#490000
1"
15
1(
0B
1>
#495000
0"
05
0(
1B
0>
#500000
0!
1"
0/
15
00
1(
0B
1>
#505000
0"
05
0(
1B
0>
#515000
1"
15
1(
0B
1>
#520000
0"
05
0(
1B
0>
#535000
1"
15
1(
0B
1>
#540000
0"
05
0(
1B
0>
#550000
1!
1"
1/
15
10
1(
0B
1>
1C
1=
1D
0H
0>
1G
13
12
1%
1&
#560000
0"
05
0(
#565000
1"
15
1(
#595000
0"
05
0(
#600000
0!
1"
0/
15
00
1(
#610000
0"
05
0(
#625000
1"
15
1(
#630000
0"
05
0(
#640000
1"
15
1(
#650000
1!
0"
1/
05
10
0(
1E
0C
16
0I
0D
1F
14
11
1$
1'
#655000
1"
15
1(
1:
06
#665000
0"
05
0(
0:
16
#670000
1"
15
1(
1:
06
#675000
0"
05
0(
0:
16
#685000
1"
15
1(
1:
06
#690000
0"
05
0(
0:
16
#700000
0!
0/
00
1(
#730000
1"
15
0(
1:
06
#735000
0"
05
1(
0:
16
#750000
1!
1"
1/
15
10
0(
1:
06
0E
19
0:
1H
0<
0G
03
02
0%
0&
#755000
0"
05
1(
#760000
1"
15
0(
#765000
0"
05
1(
#775000
1"
15
0(
#785000
0"
05
1(
#790000
1"
15
0(
#795000
0"
05
1(
#800000
0!
0/
00
0(
#810000
1"
15
1(
#820000
0"
05
0(
#825000
1"
15
1(
#850000
1!
0"
1/
05
10
0(
0=
09
1I
1B
1<
0F
04
01
0$
0'
#855000
1"
15
1(
0B
1>
#865000
0"
05
0(
1B
0>
#880000
1"
15
1(
0B
1>
#900000
0!
0"
0/
05
00
0(
1B
0>
#930000
1"
15
1(
0B
1>
#935000
0"
05
0(
1B
0>
#950000
1!
1/
10
1(
1C
1=
1D
0H
0B
1G
13
12
1%
1&
#955000
1"
15
0(
#960000
0"
05
1(
#975000
1"
15
0(
#980000
0"
05
1(
#990000
1"
15
0(
#995000
0"
05
1(
