ej2-ParteB/simulation/qsim/Parte_B.msim.vcd
$comment
	File created using the following command:
		vcd file Parte_B.msim.vcd -direction
$end
$date
	Fri Nov 18 15:59:38 2022
$end
$version
	ModelSim Version 10.1d
$end
$timescale
	1ps
$end
$scope module Parte_B_vlg_vec_tst $end
$var reg 1 ! clk $end
$var reg 1 " input_A $end
$var reg 1 # input_B $end
$var reg 1 $ input_Cin $end
$var wire 1 % output_Cout $end
$var wire 1 & output_S $end
$var wire 1 ' sampler $end
$scope module i1 $end
$var wire 1 ( gnd $end
$var wire 1 ) vcc $end
$var wire 1 * unknown $end
$var tri1 1 + devclrn $end
$var tri1 1 , devpor $end
$var tri1 1 - devoe $end
$var wire 1 . D3|Q~q $end
$var wire 1 / input_Cin~input_o $end
$var wire 1 0 D3|Q~feeder_combout $end
$var wire 1 1 output_Cout~output_o $end
$var wire 1 2 output_S~output_o $end
$var wire 1 3 clk~input_o $end
$var wire 1 4 input_B~input_o $end
$var wire 1 5 D2|Q~feeder_combout $end
$var wire 1 6 D2|Q~q $end
$var wire 1 7 input_A~input_o $end
$var wire 1 8 D1|Q~feeder_combout $end
$var wire 1 9 D1|Q~q $end
$var wire 1 : Cout~0_combout $end
$var wire 1 ; D4|Q~q $end
$var wire 1 < S~combout $end
$var wire 1 = D5|Q~q $end
$upscope $end
$upscope $end
$enddefinitions $end
#0
$dumpvars
1!
0"
0#
1$
x%
x&
x'
0(
1)
x*
1+
1,
1-
0.
1/
x0
x1
x2
13
04
x5
06
07
x8
09
x:
0;
x<
0=
$end
#628
0:
#809
0<
#3456
02
0&
#3852
08
#3872
01
0%
#4084
10
#4582
05
#10000
0!
0'
#10873
03
#20000
1#
0$
1!
1'
#20766
13
#20776
14
#20893
0/
#22578
1.
#23285
1<
#25028
15
#25266
00
#30000
0!
0'
#30873
03
#40000
1"
0#
1$
1'
#40766
17
#40786
1/
#40883
04
#44434
18
#44870
10
#45465
05
#60000
0"
1#
0'
#60776
14
#60873
07
#64725
08
#65028
15
#80000
0$
0#
1'
#80883
04
#80893
0/
#85266
00
#85465
05
#90000
1!
0'
#90766
13
#92578
0.
1=
#93387
0<
#96036
12
1&
#100000
1"
1$
1'
#100766
17
#100786
1/
#104434
18
#104870
10
#110000
0!
0'
#110873
03
#120000
0"
0$
1!
1'
#120766
13
#120873
07
#120893
0/
#122578
1.
19
0=
#122996
1:
#124725
08
#125266
00
#126034
02
0&
#130000
0!
0'
#130873
03
#140000
1#
1!
1'
#140766
13
#140776
14
#142578
0.
09
1;
#143056
0:
#145028
15
#146473
11
1%
#160000
1"
0!
0'
#160766
17
#160873
03
#164434
18
#170000
1!
1'
#170766
13
#172578
16
19
0;
#176450
01
0%
#180000
1$
0#
0'
#180786
1/
#180883
04
#184870
10
#185465
05
#200000
0!
1'
#200873
03
#210000
1!
0'
#210766
13
#212578
1.
06
#213213
1:
#230000
0!
1'
#230873
03
#250000
1!
0'
#250766
13
#252578
1;
#256473
11
1%
#260000
0$
1'
#260893
0/
#265266
00
#280000
1$
0'
#280786
1/
#284870
10
#290000
0!
1'
#290873
03
#300000
0$
0'
#300893
0/
#305266
00
#320000
1#
1!
1'
#320766
13
#320776
14
#322578
0.
#323376
1<
#325028
15
#340000
0"
1$
0'
#340786
1/
#340873
07
#344725
08
#344870
10
#350000
0!
1'
#350873
03
#360000
1"
1!
0'
#360766
13
17
#362578
1.
16
09
1=
#363055
0<
#364434
18
#366036
12
1&
#370000
0!
1'
#370873
03
#380000
0#
0$
0"
1!
0'
#380766
13
#380873
07
#380883
04
#380893
0/
#382578
19
0=
#382980
0:
#382995
1<
#384725
08
#385266
00
#385465
05
#386034
02
0&
#400000
1#
1'
#400776
14
#405028
15
#420000
1$
0!
0#
0'
#420786
1/
#420873
03
#420883
04
#424870
10
#425465
05
#440000
1"
0$
1#
1'
#440766
17
#440776
14
#440893
0/
#444434
18
#445028
15
#445266
00
#460000
1$
0#
0'
#460786
1/
#460883
04
#464870
10
#465465
05
#470000
1!
1'
#470766
13
#472578
06
0;
1=
#473206
0<
#473213
1:
#476036
12
1&
#476450
01
0%
#480000
0"
0'
#480873
07
#484725
08
#490000
0!
1'
#490873
03
#500000
0$
1#
0'
#500776
14
#500893
0/
#505028
15
#505266
00
#520000
1!
1$
1'
#520766
13
#520786
1/
#522578
0.
16
09
1;
0=
#523376
1<
#524870
10
#526034
02
0&
#526473
11
1%
#540000
0$
0'
#540893
0/
#545266
00
#560000
1"
0!
1$
1'
#560766
17
#560786
1/
#560873
03
#564434
18
#564870
10
#570000
1!
0'
#570766
13
#572578
1.
19
1=
#572980
0:
#576036
12
1&
#580000
0$
0!
1'
#580873
03
#580893
0/
#585266
00
#600000
0#
0'
#600883
04
#605465
05
#620000
0"
1$
1!
1'
#620766
13
#620786
1/
#620873
07
#622578
0.
06
0;
#623213
1:
#624725
08
#624870
10
#626450
01
0%
#640000
1#
0!
0'
#640776
14
#640873
03
#645028
15
#650000
1!
1'
#650766
13
#652578
1.
16
09
1;
#653055
0<
#656473
11
1%
#660000
1"
0'
#660766
17
#664434
18
#680000
0$
0#
0"
1'
#680873
07
#680883
04
#680893
0/
#684725
08
#685266
00
#685465
05
#700000
0!
1$
1"
0'
#700766
17
#700786
1/
#700873
03
#704434
18
#704870
10
#710000
1!
1'
#710766
13
#712578
06
19
0=
#716034
02
0&
#720000
1#
0$
0"
0'
#720776
14
#720873
07
#720893
0/
#724725
08
#725028
15
#725266
00
#730000
0!
1'
#730873
03
#740000
1$
1"
1!
0'
#740766
13
17
#740786
1/
#742578
0.
16
09
#743376
1<
#744434
18
#744870
10
#750000
0!
1'
#750873
03
#760000
0#
0$
1!
0'
#760766
13
#760883
04
#760893
0/
#762578
1.
19
1=
#762980
0:
#765266
00
#765465
05
#766036
12
1&
#770000
0!
1'
#770873
03
#780000
0"
1#
1$
1!
0'
#780766
13
#780776
14
#780786
1/
#780873
07
#782578
0.
06
0;
#783213
1:
#784725
08
#784870
10
#785028
15
#786450
01
0%
#800000
1"
0#
0$
0!
1'
#800766
17
#800873
03
#800883
04
#800893
0/
#804434
18
#805266
00
#805465
05
#820000
0"
1!
0'
#820766
13
#820873
07
#822578
1;
#824725
08
#826473
11
1%
#840000
1#
1'
#840776
14
#845028
15
#850000
0!
0'
#850873
03
#860000
0#
1!
1'
#860766
13
#860883
04
#862578
16
09
#865465
05
#880000
1#
0!
0'
#880776
14
#880873
03
#885028
15
#890000
1!
1'
#890766
13
#900000
1$
1"
0#
0!
0'
#900766
17
#900786
1/
#900873
03
#900883
04
#904434
18
#904870
10
#905465
05
#920000
0$
0"
1!
1'
#920766
13
#920873
07
#920893
0/
#922578
1.
06
19
#923206
0<
#924725
08
#925266
00
#930000
0!
0'
#930873
03
#940000
1"
1!
1'
#940766
13
17
#942578
0.
09
0=
#943056
0:
#944434
18
#946034
02
0&
#950000
0!
0'
#950873
03
#960000
1#
1'
#960776
14
#965028
15
#970000
1!
0'
#970766
13
#972578
16
19
0;
#976450
01
0%
#980000
1$
0"
0!
1'
#980786
1/
#980873
03
07
#984725
08
#984870
10
