ej3-ParteC/simulation/qsim/parte_C.msim.vcd
$comment
	File created using the following command:
		vcd file parte_C.msim.vcd -direction
$end
$date
	Sat Nov 27 17:16:38 2021
$end
$version
	ModelSim Version 10.1d
$end
$timescale
	1ps
$end
$scope module PARTE_C_DIAGRAMA_vlg_vec_tst $end
$var reg 1 ! A0 $end
$var reg 1 " A1 $end
$var reg 1 # A2 $end
$var reg 1 $ A3 $end
$var reg 1 % B0 $end
$var reg 1 & B1 $end
$var reg 1 ' B2 $end
$var reg 1 ( B3 $end
$var reg 1 ) CIN $end
$var reg 1 * clk $end
$var reg 1 + VCC $end
$var wire 1 , C $end
$var wire 1 - S $end
$var wire 1 . S0 $end
$var wire 1 / S1 $end
$var wire 1 0 S2 $end
$var wire 1 1 S3 $end
$var wire 1 2 V $end
$var wire 1 3 Z $end
$var wire 1 4 sampler $end
$scope module i1 $end
$var wire 1 5 gnd $end
$var wire 1 6 vcc $end
$var wire 1 7 unknown $end
$var tri1 1 8 devclrn $end
$var tri1 1 9 devpor $end
$var tri1 1 : devoe $end
$var wire 1 ; inst4~q $end
$var wire 1 < inst19~q $end
$var wire 1 = inst19~0_combout $end
$var wire 1 > B3~input_o $end
$var wire 1 ? B2~input_o $end
$var wire 1 @ S3~output_o $end
$var wire 1 A S2~output_o $end
$var wire 1 B S1~output_o $end
$var wire 1 C S0~output_o $end
$var wire 1 D Z~output_o $end
$var wire 1 E V~output_o $end
$var wire 1 F C~output_o $end
$var wire 1 G S~output_o $end
$var wire 1 H clk~input_o $end
$var wire 1 I clk~inputclkctrl_outclk $end
$var wire 1 J inst17~0_combout $end
$var wire 1 K inst17~feeder_combout $end
$var wire 1 L VCC~input_o $end
$var wire 1 M VCC~inputclkctrl_outclk $end
$var wire 1 N inst17~q $end
$var wire 1 O CIN~input_o $end
$var wire 1 P inst50~feeder_combout $end
$var wire 1 Q inst50~q $end
$var wire 1 R A2~input_o $end
$var wire 1 S inst5~q $end
$var wire 1 T A0~input_o $end
$var wire 1 U inst7~q $end
$var wire 1 V B0~input_o $end
$var wire 1 W inst22~0_combout $end
$var wire 1 X inst22~q $end
$var wire 1 Y inst1|Cout~0_combout $end
$var wire 1 Z A1~input_o $end
$var wire 1 [ inst6~q $end
$var wire 1 \ inst1|Cout~1_combout $end
$var wire 1 ] inst2|Cout~0_combout $end
$var wire 1 ^ inst|Cout~0_combout $end
$var wire 1 _ inst3|S~0_combout $end
$var wire 1 ` inst9~q $end
$var wire 1 a inst|S~0_combout $end
$var wire 1 b inst10~q $end
$var wire 1 c B1~input_o $end
$var wire 1 d inst20~0_combout $end
$var wire 1 e inst20~q $end
$var wire 1 f inst16~combout $end
$var wire 1 g inst2|S~combout $end
$var wire 1 h inst11~q $end
$var wire 1 i inst1|S~0_combout $end
$var wire 1 j inst12~q $end
$var wire 1 k inst32~0_combout $end
$var wire 1 l inst27~q $end
$var wire 1 m inst3|Cout~0_combout $end
$var wire 1 n A3~input_o $end
$var wire 1 o inst23~combout $end
$var wire 1 p inst21~q $end
$var wire 1 q inst40~combout $end
$var wire 1 r inst13~q $end
$var wire 1 s inst26~q $end
$upscope $end
$upscope $end
$enddefinitions $end
#0
$dumpvars
0!
0"
0#
0$
0%
0&
0'
0(
0)
0*
1+
0,
0-
0.
0/
00
01
02
03
x4
05
16
x7
18
19
1:
0;
0<
1=
0>
0?
0@
0A
0B
0C
0D
0E
0F
0G
0H
0I
1J
1K
1L
1M
0N
0O
0P
0Q
0R
0S
0T
0U
0V
1W
0X
0Y
0Z
0[
0\
0]
0^
1_
0`
1a
0b
0c
1d
0e
1f
1g
0h
1i
0j
1k
0l
0m
0n
0o
0p
0q
0r
0s
$end
#20000
1!
1"
1#
1$
1)
1*
1T
1Z
1R
1n
1O
1H
1I
04
1P
1e
1[
1X
1U
1S
1N
1<
1;
1l
1j
1h
1b
1`
0f
0g
1]
0k
1D
1C
1B
1A
1@
13
1.
1/
10
11
1g
0]
0a
1^
1a
0^
1q
1m
0_
0q
0m
1_
#25000
1%
1&
1'
1(
1V
1c
1?
1>
14
0W
0d
0=
1o
0J
0K
#30000
0!
0"
0#
0$
0)
0*
0%
0&
0'
0(
0T
0Z
0R
0n
0O
0H
0V
0c
0?
0>
0I
04
0o
0P
1W
1d
1=
1J
1K
#35000
1%
1&
1'
1(
1V
1c
1?
1>
14
0W
0d
0=
0J
0K
#40000
1)
1*
1O
1H
1I
04
1P
0e
0[
0X
0U
0S
0N
0<
0;
0l
1f
0g
0D
03
1g
#45000
1!
1"
1#
1$
0%
0&
0'
0(
0)
1T
1Z
1R
1n
0V
0c
0?
0>
0O
14
1W
1d
1=
1J
0P
1K
#50000
0*
0!
0"
0#
0$
1%
1&
1'
1(
0H
0T
0Z
0R
0n
1V
1c
1?
1>
0I
04
0W
0d
0=
0J
0K
#55000
1)
0%
0&
0'
0(
1O
0V
0c
0?
0>
14
1P
1W
1d
1=
1J
1K
#60000
1*
1!
1"
1#
1$
1H
1T
1Z
1R
1n
1I
04
1e
1[
1X
1U
1S
1Q
1N
1<
1;
0g
1]
1\
0a
1^
1m
0_
1a
1g
1_
#65000
0)
0O
14
0P
#70000
0*
0!
0"
0#
0$
0H
0T
0Z
0R
0n
0I
04
1o
#75000
1!
1"
1#
1$
1T
1Z
1R
1n
14
0o
#80000
1%
1&
1'
1(
1*
1V
1c
1?
1>
1H
1I
04
0W
0d
0=
0J
0K
0Q
1s
1q
0f
0a
0_
0\
1G
1-
0]
1a
0^
0q
0m
1_
1o
#85000
0%
0&
0'
0(
0V
0c
0?
0>
14
1W
1d
1=
0o
1J
1K
#90000
1)
0!
0"
0#
0$
0*
1O
0T
0Z
0R
0n
0H
0I
04
1P
#95000
1!
1"
1#
1$
1T
1Z
1R
1n
14
#100000
0)
1*
0!
0"
0#
0$
0O
1H
0T
0Z
0R
0n
1I
04
0P
0[
0U
0S
1Q
0;
0s
0g
0i
1Y
1q
1f
0G
0-
1]
0a
1^
0q
1m
0_
1o
#105000
1!
1"
1#
1$
1T
1Z
1R
1n
14
0o
#110000
1%
1&
1'
1(
1)
0*
1V
1c
1?
1>
1O
0H
0I
04
0W
0d
0=
0J
1P
0K
#120000
0!
0"
0#
0$
0%
0&
0'
0(
1*
0T
0Z
0R
0n
0V
0c
0?
0>
1H
1I
14
1o
1W
1d
1=
1J
1K
0e
0X
0N
0<
1s
0j
0h
0b
0`
0f
1i
0Y
1q
0m
1_
1a
0^
1k
1G
0C
0B
0A
0@
1-
0.
0/
00
01
0]
0o
0_
0a
#125000
0)
1!
1"
1#
1$
0O
1T
1Z
1R
1n
04
0P
#130000
1%
1&
1'
1(
0*
1V
1c
1?
1>
0H
0I
14
0W
0d
0=
1o
0J
0K
#135000
1)
0!
0"
0#
0$
0%
0&
0'
0(
1O
0T
0Z
0R
0n
0V
0c
0?
0>
04
1P
0o
1W
1d
1=
1J
1K
#140000
1*
0)
1H
0O
1I
14
0P
1e
1X
1N
1<
0s
1r
1l
1j
1f
0i
1Y
1_
1a
0k
0G
1F
1D
1C
0-
1,
13
1.
1]
0a
1^
0q
1m
0_
1o
#145000
1!
1"
1#
1$
1%
1&
1'
1(
1)
1T
1Z
1R
1n
1V
1c
1?
1>
1O
04
0o
0W
0d
0=
0J
1P
0K
#150000
0*
0!
0"
0#
0$
0H
0T
0Z
0R
0n
0I
14
#160000
0)
1*
0O
1H
1I
04
0P
0e
0X
0N
0<
1s
0r
0l
0j
0f
1i
0Y
1q
0m
1_
1a
0^
1k
1G
0F
0D
0C
1-
0,
03
0.
0]
0_
0a
#170000
0%
0&
0'
0(
1!
1"
1#
1$
1)
0*
0V
0c
0?
0>
1T
1Z
1R
1n
1O
0H
0I
14
1W
1d
1=
1J
1P
1K
#175000
1%
1&
1'
1(
1V
1c
1?
1>
04
0W
0d
0=
1o
0J
0K
#180000
0)
1*
0%
0&
0'
0(
0O
1H
0V
0c
0?
0>
1I
14
0P
1W
1d
1=
0o
1J
1K
1[
1U
1S
1;
0s
1r
1p
1l
1j
1g
0i
1Y
1a
1_
0k
0G
1F
1E
1D
1C
0-
1,
12
13
1.
0g
1]
0a
1^
0q
1m
0_
#185000
0!
0"
0#
0$
1%
1&
1'
1(
0T
0Z
0R
0n
1V
1c
1?
1>
04
0W
0d
0=
0J
0K
#190000
0*
1!
1"
1#
1$
0%
0&
0'
0(
0H
1T
1Z
1R
1n
0V
0c
0?
0>
0I
14
1W
1d
1=
1J
1K
#200000
1)
1*
0!
0"
0#
0$
1O
1H
0T
0Z
0R
0n
1I
04
1P
1o
1e
0[
1X
0U
0S
0Q
1N
1<
0;
1s
0r
0p
0l
0j
1g
0]
0Y
1a
0^
0m
1_
1k
1G
0F
0E
0D
0C
1-
0,
02
03
0.
0a
0g
0_
0o
#205000
1!
1"
1#
1$
1T
1Z
1R
1n
14
#210000
1%
1&
1'
1(
0)
0*
1V
1c
1?
1>
0O
0H
0I
04
0W
0d
0=
1o
0J
0P
0K
#215000
0%
0&
0'
0(
1)
0V
0c
0?
0>
1O
14
1W
1d
1=
0o
1J
1P
1K
#220000
1*
1H
1I
04
1[
1U
1S
1Q
1;
0s
1l
1g
1i
1\
1^
1m
1f
0G
1D
0-
13
1]
1_
1a
#230000
0)
0*
0O
0H
0I
14
0P
#235000
1%
1&
1'
1(
1V
1c
1?
1>
04
0W
0d
0=
0J
0K
#240000
1*
1H
1I
14
0e
0X
0Q
0N
0<
1s
1j
1h
1b
1`
0i
1q
0k
1G
1C
1B
1A
1@
1-
1.
1/
10
11
#245000
0!
0"
0#
0$
1)
0%
0&
0'
0(
0T
0Z
0R
0n
1O
0V
0c
0?
0>
04
1o
1P
1W
1d
1=
1J
1K
#250000
0*
0H
0I
14
#255000
1!
1"
1#
1$
0)
1%
1&
1'
1(
1T
1Z
1R
1n
0O
1V
1c
1?
1>
04
0o
0P
0W
0d
0=
0J
0K
#260000
1*
1H
1I
14
1r
0l
0j
1F
0D
0C
1,
03
0.
#265000
0!
0"
0#
0$
1)
0T
0Z
0R
0n
1O
04
1P
#270000
0%
0&
0'
0(
0*
0)
0V
0c
0?
0>
0H
0O
0I
14
1W
1d
1=
1o
1J
0P
1K
#275000
1!
1"
1#
1$
1)
1T
1Z
1R
1n
1O
04
0o
1P
#280000
1%
1&
1'
1(
1*
0!
0"
0#
0$
0)
1V
1c
1?
1>
1H
0T
0Z
0R
0n
0O
1I
14
0W
0d
0=
0J
0P
0K
1e
0[
1X
0U
0S
1Q
1N
1<
0;
0g
0\
1Y
0a
0q
0_
#285000
1!
1"
1#
1$
1T
1Z
1R
1n
04
#290000
0*
1)
0H
1O
0I
14
1P
#295000
0)
0O
04
0P
#300000
0%
0&
0'
0(
1*
0V
0c
0?
0>
1H
1I
14
1W
1d
1=
1J
1K
0e
1[
0X
1U
1S
0Q
0N
0<
1;
0r
0h
0b
0`
1g
1\
0Y
1a
1q
1_
1k
0F
0B
0A
0@
0,
0/
00
01
#305000
0!
0"
0#
0$
1)
1%
1&
1'
1(
0T
0Z
0R
0n
1O
1V
1c
1?
1>
04
1P
0W
0d
0=
0J
0K
#310000
0*
0)
0%
0&
0'
0(
0H
0O
0V
0c
0?
0>
0I
14
0P
1W
1d
1=
1o
1J
1K
#315000
1!
1"
1#
1$
1)
1%
1&
1'
1(
1T
1Z
1R
1n
1O
1V
1c
1?
1>
04
0o
1P
0W
0d
0=
0J
0K
#320000
1*
0%
0&
0'
0(
1H
0V
0c
0?
0>
1I
14
1W
1d
1=
1J
1K
1Q
1r
1l
1h
1b
1`
0q
0f
0a
0_
0\
1Y
0k
1F
1D
1B
1A
1@
1,
13
1/
10
11
0g
#325000
0)
1%
1&
1'
1(
0O
1V
1c
1?
1>
04
0P
0W
0d
0=
0J
0K
#330000
0!
0"
0#
0$
0*
1)
0T
0Z
0R
0n
0H
1O
0I
14
1P
#335000
0%
0&
0'
0(
1!
1"
1#
1$
0V
0c
0?
0>
1T
1Z
1R
1n
04
1W
1d
1=
1J
1K
#340000
1*
0)
0!
0"
0#
0$
1H
0O
0T
0Z
0R
0n
1I
14
0P
1o
1e
0[
1X
0U
0S
1N
1<
0;
0r
0l
0h
0b
0`
1f
1g
0]
1k
0F
0D
0B
0A
0@
0,
03
0/
00
01
0g
1]
1a
0^
0a
1^
1q
0m
1_
0q
1m
0_
0o
1o
#345000
1!
1"
1#
1$
1T
1Z
1R
1n
04
0o
#350000
1%
1&
1'
1(
0*
1V
1c
1?
1>
0H
0I
14
0W
0d
0=
0J
0K
#355000
0!
0"
0#
0$
0%
0&
0'
0(
0T
0Z
0R
0n
0V
0c
0?
0>
04
1o
1W
1d
1=
1J
1K
#360000
1*
1!
1"
1#
1$
1%
1&
1'
1(
1H
1T
1Z
1R
1n
1V
1c
1?
1>
1I
14
0o
0W
0d
0=
0J
0K
1[
1U
1S
0Q
1;
1p
1l
1g
1i
0Y
1q
0f
1E
1D
12
13
0]
1a
0^
0q
0m
1_
1o
#365000
0%
0&
0'
0(
0V
0c
0?
0>
04
1W
1d
1=
0o
1J
1K
#370000
1)
0*
0!
0"
0#
0$
1%
1&
1'
1(
1O
0H
0T
0Z
0R
0n
1V
1c
1?
1>
0I
14
1P
0W
0d
0=
0J
0K
#375000
0)
0O
04
0P
#380000
1*
0%
0&
0'
0(
1H
0V
0c
0?
0>
1I
14
1W
1d
1=
1J
1K
0e
0[
0X
0U
0S
0N
0<
0;
0s
0p
1j
1h
1b
1`
1f
0g
0k
0G
0E
1C
1B
1A
1@
0-
02
1.
1/
10
11
1g
#385000
1%
1&
1'
1(
1V
1c
1?
1>
04
0W
0d
0=
0J
0K
#390000
1!
1"
1#
1$
0*
0%
0&
0'
0(
1T
1Z
1R
1n
0H
0V
0c
0?
0>
0I
14
1W
1d
1=
1J
1K
#395000
1)
0!
0"
0#
0$
1%
1&
1'
1(
1O
0T
0Z
0R
0n
1V
1c
1?
1>
04
1P
0W
0d
0=
0J
0K
#400000
1*
0)
1!
1"
1#
1$
1H
0O
1T
1Z
1R
1n
1I
14
0P
1o
1[
1U
1S
1Q
1;
0l
0g
1]
0i
1Y
1q
0f
0D
03
0a
1^
0q
1m
0_
0o
#405000
0%
0&
0'
0(
0V
0c
0?
0>
04
1W
1d
1=
1J
1K
#410000
0*
1)
0!
0"
0#
0$
0H
1O
0T
0Z
0R
0n
0I
14
1P
1o
#415000
1%
1&
1'
1(
1V
1c
1?
1>
04
0W
0d
0=
0o
0J
0K
#420000
1*
1H
1I
14
0[
0U
0S
0;
1s
0j
0h
0b
0`
1g
0]
1i
0Y
1a
0^
1q
0m
1_
1k
1G
0C
0B
0A
0@
1-
0.
0/
00
01
0a
0g
0_
#430000
0)
0*
0O
0H
0I
04
0P
#440000
0%
0&
0'
0(
1*
0V
0c
0?
0>
1H
1I
14
1W
1d
1=
1J
1K
0Q
0s
1r
1l
1j
0q
1f
1a
1_
0k
0G
1F
1D
1C
0-
1,
13
1.
1g
#445000
1!
1"
1#
1$
1%
1&
1'
1(
1T
1Z
1R
1n
1V
1c
1?
1>
04
1o
0W
0d
0=
0J
0K
#450000
0*
0!
0"
0#
0$
0H
0T
0Z
0R
0n
0I
14
0o
#455000
1)
1!
1"
1#
1$
1O
1T
1Z
1R
1n
04
1P
1o
#460000
0%
0&
0'
0(
1*
0!
0"
0#
0$
0V
0c
0?
0>
1H
0T
0Z
0R
0n
1I
14
1W
1d
1=
0o
1J
1K
1Q
0r
1p
0l
1h
1b
1`
1q
0f
0a
0_
0F
1E
0D
1B
1A
1@
0,
12
03
1/
10
11
0g
#465000
1!
1"
1#
1$
1T
1Z
1R
1n
04
#470000
0)
0*
0!
0"
0#
0$
0O
0H
0T
0Z
0R
0n
0I
14
0P
#475000
1)
1O
04
1P
#480000
1*
1!
1"
1#
1$
1H
1T
1Z
1R
1n
1I
14
1e
1[
1X
1U
1S
1N
1<
1;
1r
0p
0h
0b
0`
1f
1g
1\
1^
0q
1m
1F
0E
0B
0A
0@
1,
02
0/
00
01
1]
1_
1a
#485000
0!
0"
0#
0$
0T
0Z
0R
0n
04
1o
#490000
0*
1!
1"
1#
1$
0H
1T
1Z
1R
1n
0I
14
0o
#495000
1%
1&
1'
1(
0)
0!
0"
0#
0$
1V
1c
1?
1>
0O
0T
0Z
0R
0n
04
0W
0d
0=
0J
0P
0K
#500000
1*
0%
0&
0'
0(
1)
1H
0V
0c
0?
0>
1O
1I
14
1W
1d
1=
1o
1J
1P
1K
0e
0[
0X
0U
0S
0Q
0N
0<
0;
1s
0r
1h
1b
1`
0g
0\
0a
1q
0_
1G
0F
1B
1A
1@
1-
0,
1/
10
11
1g
0]
1a
0^
0q
0m
1_
0o
#505000
1!
1"
1#
1$
1%
1&
1'
1(
1T
1Z
1R
1n
1V
1c
1?
1>
04
1o
0W
0d
0=
0J
0K
#510000
0*
0H
0I
14
#515000
0)
0!
0"
0#
0$
0%
0&
0'
0(
0O
0T
0Z
0R
0n
0V
0c
0?
0>
04
0P
0o
1W
1d
1=
1J
1K
#520000
1*
1)
1!
1"
1#
1$
1H
1O
1T
1Z
1R
1n
1I
14
1P
1e
1[
1X
1U
1S
1N
1<
1;
0s
0f
0g
1]
0G
0-
1g
0]
0a
1^
1a
0^
1q
1m
0_
0q
0m
1_
#525000
0)
0!
0"
0#
0$
0O
0T
0Z
0R
0n
04
0P
#530000
0*
1)
1!
1"
1#
1$
0H
1O
1T
1Z
1R
1n
0I
14
1P
#535000
1%
1&
1'
1(
0)
0!
0"
0#
0$
1V
1c
1?
1>
0O
0T
0Z
0R
0n
04
0W
0d
0=
0J
0P
0K
#540000
1*
1!
1"
1#
1$
1H
1T
1Z
1R
1n
1I
14
1o
0e
0X
0N
0<
1f
0i
1\
1q
1m
0_
0a
1^
1]
0o
1_
1a
#545000
1)
0!
0"
0#
0$
1O
0T
0Z
0R
0n
04
1P
#550000
0%
0&
0'
0(
0*
0V
0c
0?
0>
0H
0I
14
1W
1d
1=
1o
1J
1K
#555000
1%
1&
1'
1(
1V
1c
1?
1>
04
0W
0d
0=
0o
0J
0K
#560000
1!
1"
1#
1$
1*
0%
0&
0'
0(
1T
1Z
1R
1n
1H
0V
0c
0?
0>
1I
14
1W
1d
1=
1J
1K
1Q
1s
1r
0j
0q
0f
0a
0_
0\
1Y
1G
1F
0C
1-
1,
0.
0g
#565000
0)
1%
1&
1'
1(
0O
1V
1c
1?
1>
04
0P
0W
0d
0=
0J
0K
#570000
0!
0"
0#
0$
0*
1)
0%
0&
0'
0(
0T
0Z
0R
0n
0H
1O
0V
0c
0?
0>
0I
14
1o
1P
1W
1d
1=
1J
1K
#575000
0)
1%
1&
1'
1(
0O
1V
1c
1?
1>
04
0P
0W
0d
0=
0o
0J
0K
#580000
1!
1"
1#
1$
1*
1T
1Z
1R
1n
1H
1I
14
0Q
0r
0h
0b
0`
1q
1f
1a
1_
1\
0Y
1k
0F
0B
0A
0@
0,
0/
00
01
1g
#585000
0%
0&
0'
0(
0V
0c
0?
0>
04
1W
1d
1=
1J
1K
#590000
0*
0H
0I
14
#595000
1)
1%
1&
1'
1(
1O
1V
1c
1?
1>
04
1P
0W
0d
0=
0J
0K
#600000
0!
0"
0#
0$
1*
0)
0%
0&
0'
0(
0T
0Z
0R
0n
1H
0O
0V
0c
0?
0>
1I
14
1o
0P
1W
1d
1=
1J
1K
0[
0U
0S
1Q
0;
1r
1l
1h
1b
1`
0g
1i
0\
0^
0m
0f
0k
1F
1D
1B
1A
1@
1,
13
1/
10
11
0]
0_
0o
0a
#605000
1!
1"
1#
1$
1)
1%
1&
1'
1(
1T
1Z
1R
1n
1O
1V
1c
1?
1>
04
1o
1P
0W
0d
0=
0J
0K
#610000
0*
0%
0&
0'
0(
0H
0V
0c
0?
0>
0I
14
1W
1d
1=
0o
1J
1K
#615000
0!
0"
0#
0$
0T
0Z
0R
0n
04
#620000
0)
1*
1%
1&
1'
1(
1!
1"
1#
1$
0O
1H
1V
1c
1?
1>
1T
1Z
1R
1n
1I
14
0P
0W
0d
0=
1o
0J
0K
1e
1[
1X
1U
1S
1N
1<
1;
0s
0l
1j
0h
0b
0`
1f
1g
1\
1^
0q
1m
0G
0D
1C
0B
0A
0@
0-
03
1.
0/
00
01
1]
1_
0o
1a
#625000
0%
0&
0'
0(
0V
0c
0?
0>
04
1W
1d
1=
1J
1K
#630000
1)
0*
0!
0"
0#
0$
1%
1&
1'
1(
1O
0H
0T
0Z
0R
0n
1V
1c
1?
1>
0I
14
1P
0W
0d
0=
0J
0K
#640000
1*
0%
0&
0'
0(
1H
0V
0c
0?
0>
1I
04
1W
1d
1=
1o
1J
1K
0e
0[
0X
0U
0S
0N
0<
0;
1s
0r
1h
1b
1`
0f
0g
0\
0^
1q
0m
1G
0F
1B
1A
1@
1-
0,
1/
10
11
0]
0_
0o
0a
#645000
0)
1!
1"
1#
1$
0O
1T
1Z
1R
1n
14
0P
#650000
0*
1%
1&
1'
1(
0!
0"
0#
0$
0H
1V
1c
1?
1>
0T
0Z
0R
0n
0I
04
0W
0d
0=
0J
0K
#655000
0%
0&
0'
0(
1!
1"
1#
1$
0V
0c
0?
0>
1T
1Z
1R
1n
14
1W
1d
1=
1J
1K
#660000
1)
1*
1%
1&
1'
1(
0!
0"
0#
0$
1O
1H
1V
1c
1?
1>
0T
0Z
0R
0n
1I
04
1P
0W
0d
0=
0J
0K
1e
1X
0Q
1N
1<
0s
1r
0h
0b
0`
0i
0q
0G
1F
0B
0A
0@
0-
1,
0/
00
01
#665000
0)
0%
0&
0'
0(
1!
1"
1#
1$
0O
0V
0c
0?
0>
1T
1Z
1R
1n
14
0P
1W
1d
1=
1J
1K
#670000
0*
0H
0I
04
#680000
1)
0!
0"
0#
0$
1*
1O
0T
0Z
0R
0n
1H
1I
14
1P
0r
0j
1k
0F
0C
0,
0.
#685000
0)
0O
04
0P
#690000
1!
1"
1#
1$
0*
1)
1T
1Z
1R
1n
0H
1O
0I
14
1P
#695000
0!
0"
0#
0$
0T
0Z
0R
0n
04
#700000
1*
1!
1"
1#
1$
1H
1T
1Z
1R
1n
1I
14
1[
1U
1S
1Q
1;
1l
1g
1i
1\
1^
1m
1f
1D
13
1]
1_
1a
#710000
0*
0!
0"
0#
0$
0H
0T
0Z
0R
0n
0I
04
1o
#720000
1%
1&
1'
1(
1*
1V
1c
1?
1>
1H
1I
14
0W
0d
0=
0o
0J
0K
0[
0U
0S
0;
1s
1p
1j
1h
1b
1`
0g
0i
0\
1Y
0a
0_
0k
1G
1E
1C
1B
1A
1@
1-
12
1.
1/
10
11
#725000
1!
1"
1#
1$
1T
1Z
1R
1n
04
#730000
0)
0*
0!
0"
0#
0$
0O
0H
0T
0Z
0R
0n
0I
14
0P
#735000
1)
1O
04
1P
#740000
0%
0&
0'
0(
1*
1!
1"
1#
1$
0)
0V
0c
0?
0>
1H
1T
1Z
1R
1n
0O
1I
14
1W
1d
1=
1J
0P
1K
0e
1[
0X
1U
1S
0N
0<
1;
0p
0l
0j
0h
0b
0`
0f
1g
1k
0E
0D
0C
0B
0A
0@
02
03
0.
0/
00
01
0g
#745000
0!
0"
0#
0$
1)
0T
0Z
0R
0n
1O
04
1o
1P
#750000
1%
1&
1'
1(
0*
1!
1"
1#
1$
1V
1c
1?
1>
0H
1T
1Z
1R
1n
0I
14
0W
0d
0=
0o
0J
0K
#755000
0)
0%
0&
0'
0(
0!
0"
0#
0$
0O
0V
0c
0?
0>
0T
0Z
0R
0n
04
0P
1W
1d
1=
1o
1J
1K
#760000
1*
1)
1!
1"
1#
1$
1H
1O
1T
1Z
1R
1n
1I
14
1P
0o
1e
1X
0Q
1N
1<
1p
1l
1i
0Y
1q
1E
1D
12
13
1g
0]
1a
0^
0q
0m
1_
#765000
1%
1&
1'
1(
0!
0"
0#
0$
1V
1c
1?
1>
0T
0Z
0R
0n
04
0W
0d
0=
0J
0K
#770000
0*
0%
0&
0'
0(
1!
1"
1#
1$
0H
0V
0c
0?
0>
1T
1Z
1R
1n
0I
14
1W
1d
1=
1J
1K
#775000
1%
1&
1'
1(
0!
0"
0#
0$
1V
1c
1?
1>
0T
0Z
0R
0n
04
0W
0d
0=
0J
0K
#780000
0)
1*
0%
0&
0'
0(
0O
1H
0V
0c
0?
0>
1I
14
0P
1W
1d
1=
1J
1K
0e
0[
0X
0U
0S
1Q
0N
0<
0;
0s
0p
1j
1h
1b
1`
0g
0a
1q
0_
0k
0G
0E
1C
1B
1A
1@
0-
02
1.
1/
10
11
#785000
1!
1"
1#
1$
1T
1Z
1R
1n
04
#790000
0*
1%
1&
1'
1(
0!
0"
0#
0$
0H
1V
1c
1?
1>
0T
0Z
0R
0n
0I
14
0W
0d
0=
0J
0K
#795000
1)
1!
1"
1#
1$
1O
1T
1Z
1R
1n
04
1P
1o
#800000
1*
0%
0&
0'
0(
1H
0V
0c
0?
0>
1I
14
1W
1d
1=
0o
1J
1K
1[
1U
1S
1;
1r
1p
0l
0h
0b
0`
1g
0i
1Y
1a
1_
1F
1E
0D
0B
0A
0@
1,
12
03
0/
00
01
0g
1]
0a
1^
0q
1m
0_
#810000
0)
0*
0O
0H
0I
04
0P
#815000
0!
0"
0#
0$
1%
1&
1'
1(
0T
0Z
0R
0n
1V
1c
1?
1>
14
0W
0d
0=
0J
0K
#820000
1*
0%
0&
0'
0(
1H
0V
0c
0?
0>
1I
04
1W
1d
1=
1o
1J
1K
0[
0U
0S
0Q
0;
1s
0r
0p
0j
1g
0]
1i
0Y
1q
1f
1k
1G
0F
0E
0C
1-
0,
02
0.
1a
0^
0q
0m
1_
0o
#825000
1)
1!
1"
1#
1$
1%
1&
1'
1(
1O
1T
1Z
1R
1n
1V
1c
1?
1>
14
1P
1o
0W
0d
0=
0J
0K
#830000
0*
0%
0&
0'
0(
0H
0V
0c
0?
0>
0I
04
1W
1d
1=
0o
1J
1K
#835000
0)
0O
14
0P
#840000
1*
1H
1I
04
1e
1[
1X
1U
1S
1N
1<
1;
0s
1l
1j
1h
1b
1`
0f
0g
1]
0k
0G
1D
1C
1B
1A
1@
0-
13
1.
1/
10
11
1g
0]
0a
1^
1a
0^
1q
1m
0_
0q
0m
1_
#845000
0!
0"
0#
0$
1)
0T
0Z
0R
0n
1O
14
1P
#850000
1%
1&
1'
1(
0*
1V
1c
1?
1>
0H
0I
04
0W
0d
0=
0J
0K
#855000
0)
0O
14
0P
#860000
1*
1)
1H
1O
1I
04
1P
0e
0[
0X
0U
0S
0N
0<
0;
0l
1f
0g
0D
03
1g
#865000
0%
0&
0'
0(
0V
0c
0?
0>
14
1W
1d
1=
1J
1K
#870000
1!
1"
1#
1$
0*
0)
1T
1Z
1R
1n
0H
0O
0I
04
0P
#875000
1%
1&
1'
1(
1)
1V
1c
1?
1>
1O
14
0W
0d
0=
1o
0J
1P
0K
#880000
0!
0"
0#
0$
1*
0)
0T
0Z
0R
0n
1H
0O
1I
04
0o
0P
1Q
1p
1q
0f
0a
0_
1E
12
0g
#885000
0%
0&
0'
0(
0V
0c
0?
0>
14
1W
1d
1=
1J
1K
#890000
0*
1)
1%
1&
1'
1(
0H
1O
1V
1c
1?
1>
0I
04
1P
0W
0d
0=
0J
0K
#895000
1!
1"
1#
1$
0%
0&
0'
0(
1T
1Z
1R
1n
0V
0c
0?
0>
14
1W
1d
1=
1J
1K
#900000
1*
1H
1I
04
1e
1[
1X
1U
1S
1N
1<
1;
1r
0p
0h
0b
0`
1f
1g
1\
1^
0q
1m
1F
0E
0B
0A
0@
1,
02
0/
00
01
1]
1_
1a
#905000
0!
0"
0#
0$
1%
1&
1'
1(
0T
0Z
0R
0n
1V
1c
1?
1>
14
0W
0d
0=
0J
0K
#910000
0)
0*
0%
0&
0'
0(
0O
0H
0V
0c
0?
0>
0I
04
0P
1W
1d
1=
1o
1J
1K
#915000
1!
1"
1#
1$
1)
1T
1Z
1R
1n
1O
14
0o
1P
#920000
1*
0!
0"
0#
0$
1H
0T
0Z
0R
0n
1I
04
1o
0[
0U
0S
0;
1s
0r
1h
1b
1`
0g
0i
0\
1Y
0a
0_
1G
0F
1B
1A
1@
1-
0,
1/
10
11
#925000
1%
1&
1'
1(
1V
1c
1?
1>
14
0W
0d
0=
0o
0J
0K
#930000
0)
0*
0O
0H
0I
04
0P
#935000
0%
0&
0'
0(
1)
0V
0c
0?
0>
1O
14
1W
1d
1=
1o
1J
1P
1K
#940000
1*
1H
1I
04
1p
0j
0h
0b
0`
1k
1E
0C
0B
0A
0@
12
0.
0/
00
01
#945000
1!
1"
1#
1$
1T
1Z
1R
1n
14
0o
#950000
0)
0*
0!
0"
0#
0$
0O
0H
0T
0Z
0R
0n
0I
04
0P
1o
#955000
1%
1&
1'
1(
1)
1!
1"
1#
1$
1V
1c
1?
1>
1O
1T
1Z
1R
1n
14
0W
0d
0=
0o
0J
1P
0K
#960000
1*
0)
1H
0O
1I
04
0P
0e
1[
0X
1U
1S
0N
0<
1;
0p
1l
0f
1g
0E
1D
02
13
0g
#970000
0%
0&
0'
0(
0!
0"
0#
0$
0*
0V
0c
0?
0>
0T
0Z
0R
0n
0H
0I
14
1W
1d
1=
1o
1J
1K
