ej1-ParteA/simulation/qsim/Ej1_Cano.msim.vcd
$comment
	File created using the following command:
		vcd file Ej1_Cano.msim.vcd -direction
$end
$date
	Fri Nov 18 13:34:01 2022
$end
$version
	ModelSim Version 10.1d
$end
$timescale
	1ps
$end
$scope module Ej1_Cano_vlg_vec_tst $end
$var reg 1 ! A $end
$var reg 1 " B $end
$var wire 1 # LED $end
$var wire 1 $ sampler $end
$scope module i1 $end
$var wire 1 % gnd $end
$var wire 1 & vcc $end
$var wire 1 ' unknown $end
$var tri1 1 ( devclrn $end
$var tri1 1 ) devpor $end
$var tri1 1 * devoe $end
$var wire 1 + LED~output_o $end
$var wire 1 , B~input_o $end
$var wire 1 - A~input_o $end
$var wire 1 . LED~0_combout $end
$upscope $end
$upscope $end
$enddefinitions $end
#0
$dumpvars
1!
0"
x#
x$
0%
1&
x'
1(
1)
1*
x+
0,
1-
x.
$end
#2909
1.
#5501
0+
0#
#30000
0!
0$
#30874
0-
#34017
0.
#36592
1+
1#
#60000
1!
1$
#60769
1-
#63678
1.
#66270
0+
0#
#120000
0!
0$
#120874
0-
#124017
0.
#126592
1+
1#
#180000
1!
1$
#180769
1-
#183678
1.
#186270
0+
0#
#240000
0!
0$
#240874
0-
#244017
0.
#246592
1+
1#
#300000
1!
1$
#300769
1-
#303678
1.
#306270
0+
0#
#330000
0!
0$
#330874
0-
#334017
0.
#336592
1+
1#
#420000
1!
1$
#420769
1-
#423678
1.
#426270
0+
0#
#480000
1"
0!
0$
#480769
1,
#480874
0-
#540000
1!
1$
#540769
1-
#560000
0"
0$
#560874
0,
#570000
0!
1$
#570874
0-
#574017
0.
#576592
1+
1#
#600000
1!
0$
#600769
1-
#603678
1.
#606270
0+
0#
#630000
0!
1$
#630874
0-
#634017
0.
#636592
1+
1#
#720000
1"
1!
0$
#720769
1-
1,
#723678
1.
#726270
0+
0#
#750000
0!
1$
#750874
0-
#780000
1!
0$
#780769
1-
#800000
0"
1$
#800874
0,
#870000
0!
0$
#870874
0-
#874017
0.
#876592
1+
1#
#880000
1"
1$
#880769
1,
#883996
1.
#886588
0+
0#
#900000
1!
0$
#900769
1-
#930000
0!
1$
#930874
0-
#990000
1!
0$
#990769
1-
